{
    "schemaVersion": 1,
    "label": "infrastructure",
    "message": "alpine linux docker images",
    "color": "2496ED",
    "namedLogo": "docker",
    "logoColor": "white",
    "style": "for-the-badge"
}
